1 0
4  5.209141e-124
4.5  1.217024e-93
5  2.980126e-63
5.5  4.273312e-49
6  6.262462e-35
6.5  1.588404e-27
7  4.065138e-20
7.5  7.968774e-16
8  1.573166e-11
8.5  6.571933e-9
9  2.761329e-6
9.5  0.0001366
10  0.0067816
10.5  0.0838313
11  1.041956
11.5  6.241557
12  37.49348
12.5  134.3342
13  482.5467
13.5  1242.783
14  3207.237
14.5  6476.438
15  13080.6
15.5  22316.77
16  38144.71
16.5  57091.46
17  85627.42
17.5  116411.5
18  158419.1
18.5  201500.8
19  256153.5
19.5  308404.5
20  371569.4
20.5  428915.2
21  495603
21.5  553092.5
22  617504
22.5  672478.4
23  731552.4
23.5  779312
24  830415.5
24.5  865856.7
25  903327.1
25.5  932995.1
26  963564.3
26.5  983063.3
27  1.001111e+6
27.5  1.010691e+6
28  1.020186e+6
28.5  1.019519e+6
29  1.018975e+6
29.5  1.007710e+6
30  995578.7
30.5  979299.2
31  960113.5
31.5  937009.2
32  913374.2
32.5  883179.4
33  852985.7
33.5  816894.4
34  779494
34.5  739942
35  696574.8
35.5  650774.4
36  604450.9
36.5  552732.4
37  500923.5
37.5  444346.5
38  381335.3
38.5  317468
39  249818.3
39.5  140556.7
40  0
150 0